PWD /home/xkejstov/diploma_thesis
INPUT /usr/share/texmf-dist/web2c/texmf.cnf
INPUT /var/lib/texmf/web2c/pdftex/pdflatex.fmt
INPUT thesis.tex
OUTPUT thesis.log
INPUT /usr/share/texmf-dist/tex/latex/base/fix-cm.sty
INPUT /usr/share/texmf-dist/tex/latex/base/fix-cm.sty
INPUT /usr/share/texmf-dist/tex/latex/base/ts1enc.def
INPUT /usr/share/texmf-dist/tex/latex/base/ts1enc.def
INPUT /usr/share/texmf-dist/tex/latex/base/ts1enc.dfu
INPUT /usr/share/texmf-dist/tex/latex/base/ts1enc.dfu
INPUT /usr/share/texmf-dist/tex/latex/koma-script/scrreprt.cls
INPUT /usr/share/texmf-dist/tex/latex/koma-script/scrreprt.cls
INPUT /usr/share/texmf-dist/tex/latex/koma-script/scrkbase.sty
INPUT /usr/share/texmf-dist/tex/latex/koma-script/scrkbase.sty
INPUT /usr/share/texmf-dist/tex/latex/koma-script/scrbase.sty
INPUT /usr/share/texmf-dist/tex/latex/koma-script/scrbase.sty
INPUT /usr/share/texmf-dist/tex/latex/graphics/keyval.sty
INPUT /usr/share/texmf-dist/tex/latex/graphics/keyval.sty
INPUT /usr/share/texmf-dist/tex/latex/koma-script/scrlfile.sty
INPUT /usr/share/texmf-dist/tex/latex/koma-script/scrlfile.sty
INPUT /usr/share/texmf-dist/tex/latex/koma-script/tocbasic.sty
INPUT /usr/share/texmf-dist/tex/latex/koma-script/tocbasic.sty
INPUT /usr/share/texmf-dist/tex/latex/koma-script/scrsize11pt.clo
INPUT /usr/share/texmf-dist/tex/latex/koma-script/scrsize11pt.clo
INPUT /usr/share/texmf-dist/fonts/map/fontname/texfonts.map
INPUT /usr/share/texmf-dist/fonts/tfm/public/cm/cmr10.tfm
INPUT /usr/share/texmf-dist/tex/latex/koma-script/typearea.sty
INPUT /usr/share/texmf-dist/tex/latex/koma-script/typearea.sty
INPUT classicthesis-config.tex
INPUT classicthesis-config.tex
INPUT /usr/share/texmf-dist/tex/latex/base/inputenc.sty
INPUT /usr/share/texmf-dist/tex/latex/base/inputenc.sty
INPUT /usr/share/texmf-dist/tex/latex/xcolor/xcolor.sty
INPUT /usr/share/texmf-dist/tex/latex/xcolor/xcolor.sty
INPUT /usr/share/texmf-dist/tex/latex/graphics-cfg/color.cfg
INPUT /usr/share/texmf-dist/tex/latex/graphics-cfg/color.cfg
INPUT /usr/share/texmf-dist/tex/latex/graphics-def/pdftex.def
INPUT /usr/share/texmf-dist/tex/latex/graphics-def/pdftex.def
INPUT /usr/share/texmf-dist/tex/latex/graphics/dvipsnam.def
INPUT /usr/share/texmf-dist/tex/latex/graphics/dvipsnam.def
INPUT /usr/share/texmf-dist/tex/generic/babel/babel.sty
INPUT /usr/share/texmf-dist/tex/generic/babel/babel.sty
INPUT /usr/share/texmf-dist/tex/generic/babel/switch.def
INPUT /usr/share/texmf-dist/tex/generic/babel-english/american.ldf
INPUT /usr/share/texmf-dist/tex/generic/babel-english/american.ldf
INPUT /usr/share/texmf-dist/tex/generic/babel-english/american.ldf
INPUT /usr/share/texmf-dist/tex/generic/babel-english/english.ldf
INPUT /usr/share/texmf-dist/tex/generic/babel/babel.def
INPUT /usr/share/texmf-dist/tex/generic/babel/txtbabel.def
INPUT /usr/share/texmf-dist/tex/latex/adjustbox/adjustbox.sty
INPUT /usr/share/texmf-dist/tex/latex/adjustbox/adjustbox.sty
INPUT /usr/share/texmf-dist/tex/latex/xkeyval/xkeyval.sty
INPUT /usr/share/texmf-dist/tex/latex/xkeyval/xkeyval.sty
INPUT /usr/share/texmf-dist/tex/generic/xkeyval/xkeyval.tex
INPUT /usr/share/texmf-dist/tex/generic/xkeyval/xkvutils.tex
INPUT /usr/share/texmf-dist/tex/latex/adjustbox/adjcalc.sty
INPUT /usr/share/texmf-dist/tex/latex/adjustbox/adjcalc.sty
INPUT /usr/share/texmf-dist/tex/latex/adjustbox/trimclip.sty
INPUT /usr/share/texmf-dist/tex/latex/adjustbox/trimclip.sty
INPUT /usr/share/texmf-dist/tex/latex/graphics/graphicx.sty
INPUT /usr/share/texmf-dist/tex/latex/graphics/graphicx.sty
INPUT /usr/share/texmf-dist/tex/latex/graphics/graphics.sty
INPUT /usr/share/texmf-dist/tex/latex/graphics/graphics.sty
INPUT /usr/share/texmf-dist/tex/latex/graphics/trig.sty
INPUT /usr/share/texmf-dist/tex/latex/graphics/trig.sty
INPUT /usr/share/texmf-dist/tex/latex/graphics-cfg/graphics.cfg
INPUT /usr/share/texmf-dist/tex/latex/graphics-cfg/graphics.cfg
INPUT /usr/share/texmf-dist/tex/latex/collectbox/collectbox.sty
INPUT /usr/share/texmf-dist/tex/latex/collectbox/collectbox.sty
INPUT /usr/share/texmf-dist/tex/latex/adjustbox/tc-pdftex.def
INPUT /usr/share/texmf-dist/tex/latex/adjustbox/tc-pdftex.def
INPUT /usr/share/texmf-dist/tex/latex/ifoddpage/ifoddpage.sty
INPUT /usr/share/texmf-dist/tex/latex/ifoddpage/ifoddpage.sty
INPUT /usr/share/texmf-dist/tex/latex/ifoddpage/ifoddpage.sty
INPUT /usr/share/texmf-dist/tex/latex/varwidth/varwidth.sty
INPUT /usr/share/texmf-dist/tex/latex/varwidth/varwidth.sty
INPUT /usr/share/texmf-dist/tex/latex/varwidth/varwidth.sty
INPUT /usr/share/texmf-dist/tex/latex/minted/minted.sty
INPUT /usr/share/texmf-dist/tex/latex/minted/minted.sty
INPUT /usr/share/texmf-dist/tex/latex/oberdiek/kvoptions.sty
INPUT /usr/share/texmf-dist/tex/latex/oberdiek/kvoptions.sty
INPUT /usr/share/texmf-dist/tex/generic/oberdiek/ltxcmds.sty
INPUT /usr/share/texmf-dist/tex/generic/oberdiek/ltxcmds.sty
INPUT /usr/share/texmf-dist/tex/generic/oberdiek/kvsetkeys.sty
INPUT /usr/share/texmf-dist/tex/generic/oberdiek/kvsetkeys.sty
INPUT /usr/share/texmf-dist/tex/generic/oberdiek/infwarerr.sty
INPUT /usr/share/texmf-dist/tex/generic/oberdiek/infwarerr.sty
INPUT /usr/share/texmf-dist/tex/generic/oberdiek/etexcmds.sty
INPUT /usr/share/texmf-dist/tex/generic/oberdiek/etexcmds.sty
INPUT /usr/share/texmf-dist/tex/generic/oberdiek/ifluatex.sty
INPUT /usr/share/texmf-dist/tex/generic/oberdiek/ifluatex.sty
INPUT /usr/share/texmf-dist/tex/latex/fvextra/fvextra.sty
INPUT /usr/share/texmf-dist/tex/latex/fvextra/fvextra.sty
INPUT /usr/share/texmf-dist/tex/latex/base/ifthen.sty
INPUT /usr/share/texmf-dist/tex/latex/base/ifthen.sty
INPUT /usr/share/texmf-dist/tex/latex/etoolbox/etoolbox.sty
INPUT /usr/share/texmf-dist/tex/latex/etoolbox/etoolbox.sty
INPUT /usr/share/texmf-dist/tex/latex/fancyvrb/fancyvrb.sty
INPUT /usr/share/texmf-dist/tex/latex/fancyvrb/fancyvrb.sty
INPUT /usr/share/texmf-dist/tex/latex/upquote/upquote.sty
INPUT /usr/share/texmf-dist/tex/latex/upquote/upquote.sty
INPUT /usr/share/texmf-dist/tex/latex/lineno/lineno.sty
INPUT /usr/share/texmf-dist/tex/latex/lineno/lineno.sty
INPUT /usr/share/texmf-dist/tex/latex/tools/calc.sty
INPUT /usr/share/texmf-dist/tex/latex/tools/calc.sty
INPUT /usr/share/texmf-dist/tex/latex/tools/shellesc.sty
INPUT /usr/share/texmf-dist/tex/latex/tools/shellesc.sty
INPUT /usr/share/texmf-dist/tex/latex/tools/shellesc.sty
INPUT /usr/share/texmf-dist/tex/latex/ifplatform/ifplatform.sty
INPUT /usr/share/texmf-dist/tex/latex/ifplatform/ifplatform.sty
INPUT /usr/share/texmf-dist/tex/generic/oberdiek/pdftexcmds.sty
INPUT /usr/share/texmf-dist/tex/generic/oberdiek/pdftexcmds.sty
INPUT /usr/share/texmf-dist/tex/generic/oberdiek/ifpdf.sty
INPUT /usr/share/texmf-dist/tex/generic/oberdiek/ifpdf.sty
INPUT /usr/share/texmf-dist/tex/generic/oberdiek/catchfile.sty
INPUT /usr/share/texmf-dist/tex/generic/oberdiek/catchfile.sty
INPUT /dev/null
INPUT thesis.w18
INPUT thesis.w18
INPUT /usr/share/texmf-dist/tex/generic/xstring/xstring.sty
INPUT /usr/share/texmf-dist/tex/generic/xstring/xstring.sty
INPUT /usr/share/texmf-dist/tex/generic/xstring/xstring.tex
INPUT /usr/share/texmf-dist/tex/latex/framed/framed.sty
INPUT /usr/share/texmf-dist/tex/latex/framed/framed.sty
INPUT /usr/share/texmf-dist/tex/latex/float/float.sty
INPUT /usr/share/texmf-dist/tex/latex/float/float.sty
INPUT /usr/share/texmf-dist/tex/latex/csquotes/csquotes.sty
INPUT /usr/share/texmf-dist/tex/latex/csquotes/csquotes.sty
INPUT /usr/share/texmf-dist/tex/latex/csquotes/csquotes.def
INPUT /usr/share/texmf-dist/tex/latex/csquotes/csquotes.def
INPUT /usr/share/texmf-dist/tex/latex/csquotes/csquotes.cfg
INPUT /usr/share/texmf-dist/tex/latex/csquotes/csquotes.cfg
INPUT /usr/share/texmf-dist/tex/latex/biblatex/biblatex.sty
INPUT /usr/share/texmf-dist/tex/latex/biblatex/biblatex.sty
INPUT /usr/share/texmf-dist/tex/latex/logreq/logreq.sty
INPUT /usr/share/texmf-dist/tex/latex/logreq/logreq.sty
INPUT /usr/share/texmf-dist/tex/latex/logreq/logreq.def
INPUT /usr/share/texmf-dist/tex/latex/logreq/logreq.def
INPUT /usr/share/texmf-dist/tex/latex/url/url.sty
INPUT /usr/share/texmf-dist/tex/latex/url/url.sty
INPUT /usr/share/texmf-dist/tex/latex/biblatex/blx-dm.def
INPUT /usr/share/texmf-dist/tex/latex/biblatex/blx-dm.def
INPUT /usr/share/texmf-dist/tex/latex/biblatex/blx-compat.def
INPUT /usr/share/texmf-dist/tex/latex/biblatex/blx-compat.def
INPUT /usr/share/texmf-dist/tex/latex/biblatex/blx-bibtex.def
INPUT /usr/share/texmf-dist/tex/latex/biblatex/blx-bibtex.def
INPUT /usr/share/texmf-dist/tex/latex/biblatex/biblatex.def
INPUT /usr/share/texmf-dist/tex/latex/biblatex/biblatex.def
INPUT /usr/share/texmf-dist/tex/latex/biblatex/blx-natbib.def
INPUT /usr/share/texmf-dist/tex/latex/biblatex/blx-natbib.def
INPUT /usr/share/texmf-dist/tex/latex/biblatex/bbx/alphabetic.bbx
INPUT /usr/share/texmf-dist/tex/latex/biblatex/bbx/alphabetic.bbx
INPUT /usr/share/texmf-dist/tex/latex/biblatex/bbx/standard.bbx
INPUT /usr/share/texmf-dist/tex/latex/biblatex/bbx/standard.bbx
INPUT /usr/share/texmf-dist/tex/latex/biblatex/cbx/alphabetic.cbx
INPUT /usr/share/texmf-dist/tex/latex/biblatex/cbx/alphabetic.cbx
INPUT /usr/share/texmf-dist/tex/latex/biblatex/biblatex.cfg
INPUT /usr/share/texmf-dist/tex/latex/biblatex/biblatex.cfg
INPUT /usr/share/texmf-dist/tex/latex/amsmath/amsmath.sty
INPUT /usr/share/texmf-dist/tex/latex/amsmath/amsmath.sty
INPUT /usr/share/texmf-dist/tex/latex/amsmath/amstext.sty
INPUT /usr/share/texmf-dist/tex/latex/amsmath/amstext.sty
INPUT /usr/share/texmf-dist/tex/latex/amsmath/amsgen.sty
INPUT /usr/share/texmf-dist/tex/latex/amsmath/amsgen.sty
INPUT /usr/share/texmf-dist/tex/latex/amsmath/amsbsy.sty
INPUT /usr/share/texmf-dist/tex/latex/amsmath/amsbsy.sty
INPUT /usr/share/texmf-dist/tex/latex/amsmath/amsopn.sty
INPUT /usr/share/texmf-dist/tex/latex/amsmath/amsopn.sty
INPUT /usr/share/texmf-dist/tex/latex/amsfonts/amsfonts.sty
INPUT /usr/share/texmf-dist/tex/latex/amsfonts/amsfonts.sty
INPUT /usr/share/texmf-dist/tex/latex/amsfonts/amssymb.sty
INPUT /usr/share/texmf-dist/tex/latex/amsfonts/amssymb.sty
INPUT /usr/share/texmf-dist/tex/latex/amscls/amsthm.sty
INPUT /usr/share/texmf-dist/tex/latex/amscls/amsthm.sty
INPUT /usr/share/texmf-dist/tex/latex/thmtools/thmtools.sty
INPUT /usr/share/texmf-dist/tex/latex/thmtools/thmtools.sty
INPUT /usr/share/texmf-dist/tex/latex/thmtools/thm-patch.sty
INPUT /usr/share/texmf-dist/tex/latex/thmtools/thm-patch.sty
INPUT /usr/share/texmf-dist/tex/latex/thmtools/parseargs.sty
INPUT /usr/share/texmf-dist/tex/latex/thmtools/parseargs.sty
INPUT /usr/share/texmf-dist/tex/latex/thmtools/thm-kv.sty
INPUT /usr/share/texmf-dist/tex/latex/thmtools/thm-kv.sty
INPUT /usr/share/texmf-dist/tex/latex/thmtools/thm-autoref.sty
INPUT /usr/share/texmf-dist/tex/latex/thmtools/thm-autoref.sty
INPUT /usr/share/texmf-dist/tex/latex/thmtools/aliasctr.sty
INPUT /usr/share/texmf-dist/tex/latex/thmtools/aliasctr.sty
INPUT /usr/share/texmf-dist/tex/latex/carlisle/remreset.sty
INPUT /usr/share/texmf-dist/tex/latex/carlisle/remreset.sty
INPUT /usr/share/texmf-dist/tex/latex/thmtools/thm-listof.sty
INPUT /usr/share/texmf-dist/tex/latex/thmtools/thm-listof.sty
INPUT /usr/share/texmf-dist/tex/latex/thmtools/thm-restate.sty
INPUT /usr/share/texmf-dist/tex/latex/thmtools/thm-restate.sty
INPUT /usr/share/texmf-dist/tex/latex/thmtools/thm-amsthm.sty
INPUT /usr/share/texmf-dist/tex/latex/thmtools/thm-amsthm.sty
INPUT /usr/share/texmf-dist/tex/latex/base/fontenc.sty
INPUT /usr/share/texmf-dist/tex/latex/base/fontenc.sty
INPUT /usr/share/texmf-dist/tex/latex/base/t1enc.def
INPUT /usr/share/texmf-dist/tex/latex/base/t1enc.def
INPUT /usr/share/texmf-dist/fonts/tfm/jknappen/ec/ecrm1000.tfm
INPUT /usr/share/texmf-dist/tex/latex/base/textcomp.sty
INPUT /usr/share/texmf-dist/tex/latex/base/textcomp.sty
INPUT /usr/share/texmf-dist/tex/latex/base/ts1enc.def
INPUT /usr/share/texmf-dist/tex/latex/base/ts1enc.def
INPUT /usr/share/texmf-dist/tex/latex/koma-script/scrhack.sty
INPUT /usr/share/texmf-dist/tex/latex/koma-script/scrhack.sty
INPUT /usr/share/texmf-dist/tex/latex/xpatch/xpatch.sty
INPUT /usr/share/texmf-dist/tex/latex/xpatch/xpatch.sty
INPUT /usr/share/texmf-dist/tex/latex/l3kernel/expl3.sty
INPUT /usr/share/texmf-dist/tex/latex/l3kernel/expl3.sty
INPUT /usr/share/texmf-dist/tex/latex/l3kernel/expl3-code.tex
INPUT /usr/share/texmf-dist/tex/latex/l3kernel/expl3-code.tex
INPUT /usr/share/texmf-dist/fonts/tfm/public/cm/cmr10.tfm
INPUT /usr/share/texmf-dist/fonts/tfm/public/cm/cmr10.tfm
INPUT /usr/share/texmf-dist/fonts/tfm/public/cm/cmr10.tfm
INPUT /usr/share/texmf-dist/fonts/tfm/public/cm/cmr10.tfm
INPUT /usr/share/texmf-dist/fonts/tfm/public/cm/cmr10.tfm
INPUT /usr/share/texmf-dist/fonts/tfm/public/cm/cmr10.tfm
INPUT /usr/share/texmf-dist/fonts/tfm/public/cm/cmr10.tfm
INPUT /usr/share/texmf-dist/fonts/tfm/public/cm/cmr10.tfm
INPUT /usr/share/texmf-dist/fonts/tfm/public/cm/cmr10.tfm
INPUT /usr/share/texmf-dist/fonts/tfm/public/cm/cmr10.tfm
INPUT /usr/share/texmf-dist/tex/generic/unicode-data/UnicodeData.txt
INPUT /usr/share/texmf-dist/tex/generic/unicode-data/UnicodeData.txt
INPUT /dev/null
INPUT /usr/share/texmf-dist/tex/latex/l3kernel/l3pdfmode.def
INPUT /usr/share/texmf-dist/tex/latex/l3kernel/l3pdfmode.def
INPUT /usr/share/texmf-dist/tex/latex/l3packages/xparse/xparse.sty
INPUT /usr/share/texmf-dist/tex/latex/l3packages/xparse/xparse.sty
INPUT /usr/share/texmf-dist/tex/latex/koma-script/float.hak
INPUT /usr/share/texmf-dist/tex/latex/koma-script/float.hak
INPUT /usr/share/texmf-dist/tex/latex/tools/xspace.sty
INPUT /usr/share/texmf-dist/tex/latex/tools/xspace.sty
INPUT /usr/share/texmf-dist/tex/latex/mparhack/mparhack.sty
INPUT /usr/share/texmf-dist/tex/latex/mparhack/mparhack.sty
INPUT /usr/share/texmf-dist/tex/latex/marginnote/marginnote.sty
INPUT /usr/share/texmf-dist/tex/latex/marginnote/marginnote.sty
INPUT /usr/share/texmf-dist/tex/latex/acronym/acronym.sty
INPUT /usr/share/texmf-dist/tex/latex/acronym/acronym.sty
INPUT /usr/share/texmf-dist/tex/latex/bigfoot/suffix.sty
INPUT /usr/share/texmf-dist/tex/latex/bigfoot/suffix.sty
INPUT /usr/share/texmf-dist/tex/latex/relsize/relsize.sty
INPUT /usr/share/texmf-dist/tex/latex/relsize/relsize.sty
INPUT /usr/share/texmf-dist/tex/latex/microtype/microtype.sty
INPUT /usr/share/texmf-dist/tex/latex/microtype/microtype.sty
INPUT /usr/share/texmf-dist/tex/latex/microtype/microtype-pdftex.def
INPUT /usr/share/texmf-dist/tex/latex/microtype/microtype-pdftex.def
INPUT /usr/share/texmf-dist/tex/latex/microtype/microtype.cfg
INPUT /usr/share/texmf-dist/tex/latex/microtype/microtype.cfg
INPUT /usr/share/texmf-dist/tex/latex/microtype/microtype.cfg
INPUT /usr/share/texmf-dist/tex/latex/tools/tabularx.sty
INPUT /usr/share/texmf-dist/tex/latex/tools/tabularx.sty
INPUT /usr/share/texmf-dist/tex/latex/tools/array.sty
INPUT /usr/share/texmf-dist/tex/latex/tools/array.sty
INPUT /usr/share/texmf-dist/tex/latex/caption/caption.sty
INPUT /usr/share/texmf-dist/tex/latex/caption/caption.sty
INPUT /usr/share/texmf-dist/tex/latex/caption/caption3.sty
INPUT /usr/share/texmf-dist/tex/latex/caption/caption3.sty
INPUT /usr/share/texmf-dist/tex/latex/subfig/subfig.sty
INPUT /usr/share/texmf-dist/tex/latex/subfig/subfig.sty
INPUT /usr/share/texmf-dist/tex/latex/hyperref/hyperref.sty
INPUT /usr/share/texmf-dist/tex/latex/hyperref/hyperref.sty
INPUT /usr/share/texmf-dist/tex/generic/oberdiek/hobsub-hyperref.sty
INPUT /usr/share/texmf-dist/tex/generic/oberdiek/hobsub-hyperref.sty
INPUT /usr/share/texmf-dist/tex/generic/oberdiek/hobsub-hyperref.sty
INPUT /usr/share/texmf-dist/tex/generic/oberdiek/hobsub-generic.sty
INPUT /usr/share/texmf-dist/tex/generic/oberdiek/hobsub-generic.sty
INPUT /usr/share/texmf-dist/tex/generic/ifxetex/ifxetex.sty
INPUT /usr/share/texmf-dist/tex/generic/ifxetex/ifxetex.sty
INPUT /usr/share/texmf-dist/tex/latex/oberdiek/auxhook.sty
INPUT /usr/share/texmf-dist/tex/latex/oberdiek/auxhook.sty
INPUT /usr/share/texmf-dist/tex/latex/hyperref/pd1enc.def
INPUT /usr/share/texmf-dist/tex/latex/hyperref/pd1enc.def
INPUT /usr/share/texmf-dist/tex/latex/latexconfig/hyperref.cfg
INPUT /usr/share/texmf-dist/tex/latex/latexconfig/hyperref.cfg
INPUT /usr/share/texmf-dist/tex/latex/hyperref/hpdftex.def
INPUT /usr/share/texmf-dist/tex/latex/hyperref/hpdftex.def
INPUT /usr/share/texmf-dist/tex/latex/oberdiek/rerunfilecheck.sty
INPUT /usr/share/texmf-dist/tex/latex/oberdiek/rerunfilecheck.sty
INPUT classicthesis.sty
INPUT classicthesis.sty
INPUT /usr/share/texmf-dist/tex/latex/listings/listings.sty
INPUT /usr/share/texmf-dist/tex/latex/listings/listings.sty
INPUT /usr/share/texmf-dist/tex/latex/listings/lstmisc.sty
INPUT /usr/share/texmf-dist/tex/latex/listings/lstmisc.sty
INPUT /usr/share/texmf-dist/tex/latex/listings/listings.cfg
INPUT /usr/share/texmf-dist/tex/latex/listings/listings.cfg
INPUT /usr/share/texmf-dist/tex/latex/koma-script/listings.hak
INPUT /usr/share/texmf-dist/tex/latex/koma-script/listings.hak
INPUT /usr/share/texmf-dist/tex/latex/psnfss/mathpazo.sty
INPUT /usr/share/texmf-dist/tex/latex/psnfss/mathpazo.sty
INPUT /usr/share/texmf-dist/tex/latex/bera/beramono.sty
INPUT /usr/share/texmf-dist/tex/latex/bera/beramono.sty
INPUT /usr/share/texmf-dist/tex/latex/eulervm/eulervm.sty
INPUT /usr/share/texmf-dist/tex/latex/eulervm/eulervm.sty
INPUT /usr/share/texmf-dist/fonts/tfm/public/amsfonts/euler/eurb10.tfm
INPUT /usr/share/texmf-dist/tex/latex/booktabs/booktabs.sty
INPUT /usr/share/texmf-dist/tex/latex/booktabs/booktabs.sty
INPUT /usr/share/texmf-dist/tex/latex/textcase/textcase.sty
INPUT /usr/share/texmf-dist/tex/latex/textcase/textcase.sty
INPUT /usr/share/texmf-dist/tex/latex/koma-script/scrlayer-scrpage.sty
INPUT /usr/share/texmf-dist/tex/latex/koma-script/scrlayer-scrpage.sty
INPUT /usr/share/texmf-dist/tex/latex/koma-script/scrlayer.sty
INPUT /usr/share/texmf-dist/tex/latex/koma-script/scrlayer.sty
INPUT /usr/share/texmf-dist/tex/latex/titlesec/titlesec.sty
INPUT /usr/share/texmf-dist/tex/latex/titlesec/titlesec.sty
INPUT /usr/share/texmf-dist/tex/latex/tocloft/tocloft.sty
INPUT /usr/share/texmf-dist/tex/latex/tocloft/tocloft.sty
INPUT /usr/share/texmf-dist/tex/latex/koma-script/scrtime.sty
INPUT /usr/share/texmf-dist/tex/latex/koma-script/scrtime.sty
INPUT /usr/share/texmf-dist/tex/latex/xargs/xargs.sty
INPUT /usr/share/texmf-dist/tex/latex/xargs/xargs.sty
INPUT /usr/share/texmf-dist/tex/latex/todonotes/todonotes.sty
INPUT /usr/share/texmf-dist/tex/latex/todonotes/todonotes.sty
INPUT /usr/share/texmf-dist/tex/latex/pgf/frontendlayer/tikz.sty
INPUT /usr/share/texmf-dist/tex/latex/pgf/frontendlayer/tikz.sty
INPUT /usr/share/texmf-dist/tex/latex/pgf/basiclayer/pgf.sty
INPUT /usr/share/texmf-dist/tex/latex/pgf/basiclayer/pgf.sty
INPUT /usr/share/texmf-dist/tex/latex/pgf/utilities/pgfrcs.sty
INPUT /usr/share/texmf-dist/tex/latex/pgf/utilities/pgfrcs.sty
INPUT /usr/share/texmf-dist/tex/generic/pgf/utilities/pgfutil-common.tex
INPUT /usr/share/texmf-dist/tex/generic/pgf/utilities/pgfutil-common-lists.tex
INPUT /usr/share/texmf-dist/tex/generic/pgf/utilities/pgfutil-latex.def
INPUT /usr/share/texmf-dist/tex/latex/ms/everyshi.sty
INPUT /usr/share/texmf-dist/tex/latex/ms/everyshi.sty
INPUT /usr/share/texmf-dist/tex/generic/pgf/utilities/pgfrcs.code.tex
INPUT /usr/share/texmf-dist/tex/generic/pgf/utilities/pgfrcs.code.tex
INPUT /usr/share/texmf-dist/tex/generic/pgf/pgf.revision.tex
INPUT /usr/share/texmf-dist/tex/generic/pgf/pgf.revision.tex
INPUT /usr/share/texmf-dist/tex/latex/pgf/basiclayer/pgfcore.sty
INPUT /usr/share/texmf-dist/tex/latex/pgf/basiclayer/pgfcore.sty
INPUT /usr/share/texmf-dist/tex/latex/pgf/systemlayer/pgfsys.sty
INPUT /usr/share/texmf-dist/tex/latex/pgf/systemlayer/pgfsys.sty
INPUT /usr/share/texmf-dist/tex/generic/pgf/systemlayer/pgfsys.code.tex
INPUT /usr/share/texmf-dist/tex/generic/pgf/systemlayer/pgfsys.code.tex
INPUT /usr/share/texmf-dist/tex/generic/pgf/utilities/pgfkeys.code.tex
INPUT /usr/share/texmf-dist/tex/generic/pgf/utilities/pgfkeysfiltered.code.tex
INPUT /usr/share/texmf-dist/tex/generic/pgf/systemlayer/pgf.cfg
INPUT /usr/share/texmf-dist/tex/generic/pgf/systemlayer/pgfsys-pdftex.def
INPUT /usr/share/texmf-dist/tex/generic/pgf/systemlayer/pgfsys-pdftex.def
INPUT /usr/share/texmf-dist/tex/generic/pgf/systemlayer/pgfsys-common-pdf.def
INPUT /usr/share/texmf-dist/tex/generic/pgf/systemlayer/pgfsyssoftpath.code.tex
INPUT /usr/share/texmf-dist/tex/generic/pgf/systemlayer/pgfsyssoftpath.code.tex
INPUT /usr/share/texmf-dist/tex/generic/pgf/systemlayer/pgfsysprotocol.code.tex
INPUT /usr/share/texmf-dist/tex/generic/pgf/systemlayer/pgfsysprotocol.code.tex
INPUT /usr/share/texmf-dist/tex/generic/pgf/basiclayer/pgfcore.code.tex
INPUT /usr/share/texmf-dist/tex/generic/pgf/basiclayer/pgfcore.code.tex
INPUT /usr/share/texmf-dist/tex/generic/pgf/math/pgfmath.code.tex
INPUT /usr/share/texmf-dist/tex/generic/pgf/math/pgfmathcalc.code.tex
INPUT /usr/share/texmf-dist/tex/generic/pgf/math/pgfmathutil.code.tex
INPUT /usr/share/texmf-dist/tex/generic/pgf/math/pgfmathparser.code.tex
INPUT /usr/share/texmf-dist/tex/generic/pgf/math/pgfmathfunctions.code.tex
INPUT /usr/share/texmf-dist/tex/generic/pgf/math/pgfmathfunctions.basic.code.tex
INPUT /usr/share/texmf-dist/tex/generic/pgf/math/pgfmathfunctions.trigonometric.code.tex
INPUT /usr/share/texmf-dist/tex/generic/pgf/math/pgfmathfunctions.random.code.tex
INPUT /usr/share/texmf-dist/tex/generic/pgf/math/pgfmathfunctions.comparison.code.tex
INPUT /usr/share/texmf-dist/tex/generic/pgf/math/pgfmathfunctions.base.code.tex
INPUT /usr/share/texmf-dist/tex/generic/pgf/math/pgfmathfunctions.round.code.tex
INPUT /usr/share/texmf-dist/tex/generic/pgf/math/pgfmathfunctions.misc.code.tex
INPUT /usr/share/texmf-dist/tex/generic/pgf/math/pgfmathfunctions.integerarithmetics.code.tex
INPUT /usr/share/texmf-dist/tex/generic/pgf/math/pgfmathfloat.code.tex
INPUT /usr/share/texmf-dist/tex/generic/pgf/basiclayer/pgfcorepoints.code.tex
INPUT /usr/share/texmf-dist/tex/generic/pgf/basiclayer/pgfcorepathconstruct.code.tex
INPUT /usr/share/texmf-dist/tex/generic/pgf/basiclayer/pgfcorepathusage.code.tex
INPUT /usr/share/texmf-dist/tex/generic/pgf/basiclayer/pgfcorescopes.code.tex
INPUT /usr/share/texmf-dist/tex/generic/pgf/basiclayer/pgfcoregraphicstate.code.tex
INPUT /usr/share/texmf-dist/tex/generic/pgf/basiclayer/pgfcoretransformations.code.tex
INPUT /usr/share/texmf-dist/tex/generic/pgf/basiclayer/pgfcorequick.code.tex
INPUT /usr/share/texmf-dist/tex/generic/pgf/basiclayer/pgfcoreobjects.code.tex
INPUT /usr/share/texmf-dist/tex/generic/pgf/basiclayer/pgfcorepathprocessing.code.tex
INPUT /usr/share/texmf-dist/tex/generic/pgf/basiclayer/pgfcorearrows.code.tex
INPUT /usr/share/texmf-dist/tex/generic/pgf/basiclayer/pgfcoreshade.code.tex
INPUT /usr/share/texmf-dist/tex/generic/pgf/basiclayer/pgfcoreimage.code.tex
INPUT /usr/share/texmf-dist/tex/generic/pgf/basiclayer/pgfcoreexternal.code.tex
INPUT /usr/share/texmf-dist/tex/generic/pgf/basiclayer/pgfcorelayers.code.tex
INPUT /usr/share/texmf-dist/tex/generic/pgf/basiclayer/pgfcoretransparency.code.tex
INPUT /usr/share/texmf-dist/tex/generic/pgf/basiclayer/pgfcorepatterns.code.tex
INPUT /usr/share/texmf-dist/tex/generic/pgf/basiclayer/pgfcorerdf.code.tex
INPUT /usr/share/texmf-dist/tex/generic/pgf/modules/pgfmoduleshapes.code.tex
INPUT /usr/share/texmf-dist/tex/generic/pgf/modules/pgfmoduleplot.code.tex
INPUT /usr/share/texmf-dist/tex/latex/pgf/compatibility/pgfcomp-version-0-65.sty
INPUT /usr/share/texmf-dist/tex/latex/pgf/compatibility/pgfcomp-version-0-65.sty
INPUT /usr/share/texmf-dist/tex/latex/pgf/compatibility/pgfcomp-version-1-18.sty
INPUT /usr/share/texmf-dist/tex/latex/pgf/compatibility/pgfcomp-version-1-18.sty
INPUT /usr/share/texmf-dist/tex/latex/pgf/utilities/pgffor.sty
INPUT /usr/share/texmf-dist/tex/latex/pgf/utilities/pgffor.sty
INPUT /usr/share/texmf-dist/tex/latex/pgf/utilities/pgfkeys.sty
INPUT /usr/share/texmf-dist/tex/latex/pgf/utilities/pgfkeys.sty
INPUT /usr/share/texmf-dist/tex/generic/pgf/utilities/pgfkeys.code.tex
INPUT /usr/share/texmf-dist/tex/generic/pgf/utilities/pgfkeys.code.tex
INPUT /usr/share/texmf-dist/tex/latex/pgf/math/pgfmath.sty
INPUT /usr/share/texmf-dist/tex/latex/pgf/math/pgfmath.sty
INPUT /usr/share/texmf-dist/tex/generic/pgf/math/pgfmath.code.tex
INPUT /usr/share/texmf-dist/tex/generic/pgf/math/pgfmath.code.tex
INPUT /usr/share/texmf-dist/tex/generic/pgf/utilities/pgffor.code.tex
INPUT /usr/share/texmf-dist/tex/generic/pgf/utilities/pgffor.code.tex
INPUT /usr/share/texmf-dist/tex/generic/pgf/math/pgfmath.code.tex
INPUT /usr/share/texmf-dist/tex/generic/pgf/frontendlayer/tikz/tikz.code.tex
INPUT /usr/share/texmf-dist/tex/generic/pgf/frontendlayer/tikz/tikz.code.tex
INPUT /usr/share/texmf-dist/tex/generic/pgf/libraries/pgflibraryplothandlers.code.tex
INPUT /usr/share/texmf-dist/tex/generic/pgf/libraries/pgflibraryplothandlers.code.tex
INPUT /usr/share/texmf-dist/tex/generic/pgf/modules/pgfmodulematrix.code.tex
INPUT /usr/share/texmf-dist/tex/generic/pgf/frontendlayer/tikz/libraries/tikzlibrarytopaths.code.tex
INPUT /usr/share/texmf-dist/tex/generic/pgf/frontendlayer/tikz/libraries/tikzlibrarytopaths.code.tex
INPUT /usr/share/texmf-dist/tex/generic/pgf/frontendlayer/tikz/libraries/tikzlibrarypositioning.code.tex
INPUT /usr/share/texmf-dist/tex/generic/pgf/frontendlayer/tikz/libraries/tikzlibrarypositioning.code.tex
INPUT /usr/share/texmf-dist/tex/generic/pgf/frontendlayer/tikz/libraries/tikzlibraryshadows.code.tex
INPUT /usr/share/texmf-dist/tex/generic/pgf/frontendlayer/tikz/libraries/tikzlibraryshadows.code.tex
INPUT /usr/share/texmf-dist/tex/generic/pgf/frontendlayer/tikz/libraries/tikzlibraryfadings.code.tex
INPUT /usr/share/texmf-dist/tex/generic/pgf/frontendlayer/tikz/libraries/tikzlibraryfadings.code.tex
INPUT /usr/share/texmf-dist/tex/generic/pgf/libraries/pgflibraryfadings.code.tex
INPUT /usr/share/texmf-dist/tex/generic/pgf/libraries/pgflibraryfadings.code.tex
OUTPUT thesis.pdf
INPUT /usr/share/texmf-dist/tex/generic/pgf/frontendlayer/tikz/libraries/tikzlibraryshapes.code.tex
INPUT /usr/share/texmf-dist/tex/generic/pgf/frontendlayer/tikz/libraries/tikzlibraryshapes.code.tex
INPUT /usr/share/texmf-dist/tex/generic/pgf/frontendlayer/tikz/libraries/tikzlibraryshapes.geometric.code.tex
INPUT /usr/share/texmf-dist/tex/generic/pgf/frontendlayer/tikz/libraries/tikzlibraryshapes.geometric.code.tex
INPUT /usr/share/texmf-dist/tex/generic/pgf/libraries/shapes/pgflibraryshapes.geometric.code.tex
INPUT /usr/share/texmf-dist/tex/generic/pgf/libraries/shapes/pgflibraryshapes.geometric.code.tex
INPUT /usr/share/texmf-dist/tex/generic/pgf/frontendlayer/tikz/libraries/tikzlibraryshapes.misc.code.tex
INPUT /usr/share/texmf-dist/tex/generic/pgf/frontendlayer/tikz/libraries/tikzlibraryshapes.misc.code.tex
INPUT /usr/share/texmf-dist/tex/generic/pgf/libraries/shapes/pgflibraryshapes.misc.code.tex
INPUT /usr/share/texmf-dist/tex/generic/pgf/libraries/shapes/pgflibraryshapes.misc.code.tex
INPUT /usr/share/texmf-dist/tex/generic/pgf/frontendlayer/tikz/libraries/tikzlibraryshapes.symbols.code.tex
INPUT /usr/share/texmf-dist/tex/generic/pgf/frontendlayer/tikz/libraries/tikzlibraryshapes.symbols.code.tex
INPUT /usr/share/texmf-dist/tex/generic/pgf/libraries/shapes/pgflibraryshapes.symbols.code.tex
INPUT /usr/share/texmf-dist/tex/generic/pgf/libraries/shapes/pgflibraryshapes.symbols.code.tex
INPUT /usr/share/texmf-dist/tex/generic/pgf/frontendlayer/tikz/libraries/tikzlibraryshapes.arrows.code.tex
INPUT /usr/share/texmf-dist/tex/generic/pgf/frontendlayer/tikz/libraries/tikzlibraryshapes.arrows.code.tex
INPUT /usr/share/texmf-dist/tex/generic/pgf/libraries/shapes/pgflibraryshapes.arrows.code.tex
INPUT /usr/share/texmf-dist/tex/generic/pgf/libraries/shapes/pgflibraryshapes.arrows.code.tex
INPUT /usr/share/texmf-dist/tex/generic/pgf/frontendlayer/tikz/libraries/tikzlibraryshapes.callouts.code.tex
INPUT /usr/share/texmf-dist/tex/generic/pgf/frontendlayer/tikz/libraries/tikzlibraryshapes.callouts.code.tex
INPUT /usr/share/texmf-dist/tex/generic/pgf/libraries/shapes/pgflibraryshapes.callouts.code.tex
INPUT /usr/share/texmf-dist/tex/generic/pgf/libraries/shapes/pgflibraryshapes.callouts.code.tex
INPUT /usr/share/texmf-dist/tex/generic/pgf/frontendlayer/tikz/libraries/tikzlibraryshapes.multipart.code.tex
INPUT /usr/share/texmf-dist/tex/generic/pgf/frontendlayer/tikz/libraries/tikzlibraryshapes.multipart.code.tex
INPUT /usr/share/texmf-dist/tex/generic/pgf/libraries/shapes/pgflibraryshapes.multipart.code.tex
INPUT /usr/share/texmf-dist/tex/generic/pgf/libraries/shapes/pgflibraryshapes.multipart.code.tex
INPUT /usr/share/texmf-dist/tex/generic/pgf/frontendlayer/tikz/libraries/tikzlibraryarrows.code.tex
INPUT /usr/share/texmf-dist/tex/generic/pgf/frontendlayer/tikz/libraries/tikzlibraryarrows.code.tex
INPUT /usr/share/texmf-dist/tex/generic/pgf/libraries/pgflibraryarrows.code.tex
INPUT /usr/share/texmf-dist/tex/generic/pgf/libraries/pgflibraryarrows.code.tex
INPUT /usr/share/texmf-dist/tex/generic/pgf/frontendlayer/tikz/libraries/tikzlibraryautomata.code.tex
INPUT /usr/share/texmf-dist/tex/generic/pgf/frontendlayer/tikz/libraries/tikzlibraryautomata.code.tex
INPUT /usr/share/texmf-dist/tex/generic/pgf/frontendlayer/tikz/libraries/tikzlibrarycalc.code.tex
INPUT /usr/share/texmf-dist/tex/generic/pgf/frontendlayer/tikz/libraries/tikzlibrarycalc.code.tex
INPUT /usr/share/texmf-dist/tex/generic/pgf/frontendlayer/tikz/libraries/tikzlibraryfit.code.tex
INPUT /usr/share/texmf-dist/tex/generic/pgf/frontendlayer/tikz/libraries/tikzlibraryfit.code.tex
INPUT /usr/share/texmf-dist/tex/generic/pgf/frontendlayer/tikz/libraries/tikzlibrarybackgrounds.code.tex
INPUT /usr/share/texmf-dist/tex/generic/pgf/frontendlayer/tikz/libraries/tikzlibrarybackgrounds.code.tex
INPUT /usr/share/texmf-dist/tex/generic/pgf/frontendlayer/tikz/libraries/tikzlibrarydecorations.pathmorphing.code.tex
INPUT /usr/share/texmf-dist/tex/generic/pgf/frontendlayer/tikz/libraries/tikzlibrarydecorations.pathmorphing.code.tex
INPUT /usr/share/texmf-dist/tex/generic/pgf/frontendlayer/tikz/libraries/tikzlibrarydecorations.code.tex
INPUT /usr/share/texmf-dist/tex/generic/pgf/frontendlayer/tikz/libraries/tikzlibrarydecorations.code.tex
INPUT /usr/share/texmf-dist/tex/generic/pgf/modules/pgfmoduledecorations.code.tex
INPUT /usr/share/texmf-dist/tex/generic/pgf/libraries/decorations/pgflibrarydecorations.pathmorphing.code.tex
INPUT /usr/share/texmf-dist/tex/generic/pgf/libraries/decorations/pgflibrarydecorations.pathmorphing.code.tex
INPUT /usr/share/texmf-dist/tex/generic/pgf/frontendlayer/tikz/libraries/tikzlibrarydecorations.pathreplacing.code.tex
INPUT /usr/share/texmf-dist/tex/generic/pgf/frontendlayer/tikz/libraries/tikzlibrarydecorations.pathreplacing.code.tex
INPUT /usr/share/texmf-dist/tex/generic/pgf/libraries/decorations/pgflibrarydecorations.pathreplacing.code.tex
INPUT /usr/share/texmf-dist/tex/generic/pgf/libraries/decorations/pgflibrarydecorations.pathreplacing.code.tex
INPUT /usr/share/texmf-dist/tex/generic/pgf/frontendlayer/tikz/libraries/tikzlibrarytrees.code.tex
INPUT /usr/share/texmf-dist/tex/generic/pgf/frontendlayer/tikz/libraries/tikzlibrarytrees.code.tex
INPUT /usr/share/texmf-dist/tex/latex/sidenotes/sidenotes.sty
INPUT /usr/share/texmf-dist/tex/latex/sidenotes/sidenotes.sty
INPUT /usr/share/texmf-dist/tex/latex/l3packages/l3keys2e/l3keys2e.sty
INPUT /usr/share/texmf-dist/tex/latex/l3packages/l3keys2e/l3keys2e.sty
INPUT /usr/share/texmf-dist/tex/latex/changepage/changepage.sty
INPUT /usr/share/texmf-dist/tex/latex/changepage/changepage.sty
INPUT /usr/share/texmf-dist/tex/latex/multirow/multirow.sty
INPUT /usr/share/texmf-dist/tex/latex/multirow/multirow.sty
INPUT /usr/share/texmf-dist/tex/latex/graphics/rotating.sty
INPUT /usr/share/texmf-dist/tex/latex/graphics/rotating.sty
INPUT /usr/share/texmf-dist/tex/latex/diagbox/diagbox.sty
INPUT /usr/share/texmf-dist/tex/latex/diagbox/diagbox.sty
INPUT /usr/share/texmf-dist/tex/latex/pict2e/pict2e.sty
INPUT /usr/share/texmf-dist/tex/latex/pict2e/pict2e.sty
INPUT /usr/share/texmf-dist/tex/latex/pict2e/pict2e.cfg
INPUT /usr/share/texmf-dist/tex/latex/pict2e/pict2e.cfg
INPUT /usr/share/texmf-dist/tex/latex/pict2e/p2e-pdftex.def
INPUT /usr/share/texmf-dist/tex/latex/pict2e/p2e-pdftex.def
INPUT /usr/share/texmf-dist/tex/latex/fp/fp.sty
INPUT /usr/share/texmf-dist/tex/latex/fp/fp.sty
INPUT /usr/share/texmf-dist/tex/latex/fp/defpattern.sty
INPUT /usr/share/texmf-dist/tex/latex/fp/defpattern.sty
INPUT /usr/share/texmf-dist/tex/latex/fp/fp-basic.sty
INPUT /usr/share/texmf-dist/tex/latex/fp/fp-basic.sty
INPUT /usr/share/texmf-dist/tex/latex/fp/fp-addons.sty
INPUT /usr/share/texmf-dist/tex/latex/fp/fp-addons.sty
INPUT /usr/share/texmf-dist/tex/latex/fp/fp-snap.sty
INPUT /usr/share/texmf-dist/tex/latex/fp/fp-snap.sty
INPUT /usr/share/texmf-dist/tex/latex/fp/fp-exp.sty
INPUT /usr/share/texmf-dist/tex/latex/fp/fp-exp.sty
INPUT /usr/share/texmf-dist/tex/latex/fp/fp-trigo.sty
INPUT /usr/share/texmf-dist/tex/latex/fp/fp-trigo.sty
INPUT /usr/share/texmf-dist/tex/latex/fp/fp-pas.sty
INPUT /usr/share/texmf-dist/tex/latex/fp/fp-pas.sty
INPUT /usr/share/texmf-dist/tex/latex/fp/fp-random.sty
INPUT /usr/share/texmf-dist/tex/latex/fp/fp-random.sty
INPUT /usr/share/texmf-dist/tex/latex/fp/fp-eqn.sty
INPUT /usr/share/texmf-dist/tex/latex/fp/fp-eqn.sty
INPUT /usr/share/texmf-dist/tex/latex/fp/fp-upn.sty
INPUT /usr/share/texmf-dist/tex/latex/fp/fp-upn.sty
INPUT /usr/share/texmf-dist/tex/latex/fp/fp-eval.sty
INPUT /usr/share/texmf-dist/tex/latex/fp/fp-eval.sty
INPUT /usr/share/texmf-dist/tex/latex/colortbl/colortbl.sty
INPUT /usr/share/texmf-dist/tex/latex/colortbl/colortbl.sty
OUTPUT hyphenation.aux
INPUT hyphenation.tex
INPUT hyphenation.tex
OUTPUT shortcuts.aux
INPUT shortcuts.tex
INPUT shortcuts.tex
INPUT /usr/share/texmf-dist/tex/latex/listings/lstlang1.sty
INPUT /usr/share/texmf-dist/tex/latex/listings/lstlang1.sty
INPUT /usr/share/texmf-dist/tex/latex/listings/lstlang1.sty
INPUT /usr/share/texmf-dist/tex/latex/listings/lstlang1.sty
INPUT /usr/share/texmf-dist/tex/latex/listings/lstmisc.sty
INPUT /usr/share/texmf-dist/tex/latex/listings/lstmisc.sty
INPUT thesis.aex
INPUT thesis.aex
INPUT /usr/share/texmf-dist/tex/latex/biblatex/lbx/american.lbx
INPUT /usr/share/texmf-dist/tex/latex/biblatex/lbx/american.lbx
INPUT /usr/share/texmf-dist/tex/latex/biblatex/lbx/english.lbx
INPUT /usr/share/texmf-dist/tex/latex/biblatex/lbx/english.lbx
INPUT /usr/share/texmf-dist/tex/latex/biblatex/lbx/english.lbx
INPUT /usr/share/texmf-dist/tex/latex/biblatex/lbx/english.lbx
INPUT thesis.aux
INPUT thesis.aux
INPUT frontback/titlepage.aux
INPUT frontback/titlepage.aux
INPUT frontback/declaration.aux
INPUT frontback/declaration.aux
INPUT frontback/abstract.aux
INPUT frontback/abstract.aux
INPUT frontback/keywords.aux
INPUT frontback/keywords.aux
INPUT frontback/acknowledgements.aux
INPUT frontback/acknowledgements.aux
INPUT frontback/contents.aux
INPUT frontback/contents.aux
INPUT chapters/01-introduction.aux
INPUT chapters/01-introduction.aux
INPUT chapters/02-preliminaries.aux
INPUT chapters/02-preliminaries.aux
INPUT chapters/03-divine.aux
INPUT chapters/03-divine.aux
INPUT chapters/04-fuzzing.aux
INPUT chapters/04-fuzzing.aux
INPUT chapters/05-commuting.aux
INPUT chapters/05-commuting.aux
INPUT chapters/06-divinefuzzing.aux
INPUT chapters/06-divinefuzzing.aux
INPUT chapters/07-results.aux
INPUT chapters/07-results.aux
INPUT chapters/08-conclusion.aux
INPUT chapters/08-conclusion.aux
INPUT chapters/appendix-a.aux
INPUT chapters/appendix-a.aux
INPUT frontback/bibliography.aux
INPUT frontback/bibliography.aux
OUTPUT thesis.aux
INPUT /usr/share/texmf-dist/tex/latex/psnfss/t1pplj.fd
INPUT /usr/share/texmf-dist/tex/latex/psnfss/t1pplj.fd
INPUT /usr/share/texmf-dist/fonts/tfm/adobe/palatino/pplr9d.tfm
INPUT /usr/share/texmf-dist/tex/context/base/mkii/supp-pdf.mkii
INPUT /usr/share/texmf-dist/tex/context/base/mkii/supp-pdf.mkii
INPUT /usr/share/texmf-dist/tex/latex/oberdiek/epstopdf-base.sty
INPUT /usr/share/texmf-dist/tex/latex/oberdiek/epstopdf-base.sty
INPUT /usr/share/texmf-dist/tex/latex/oberdiek/grfext.sty
INPUT /usr/share/texmf-dist/tex/latex/oberdiek/grfext.sty
INPUT /usr/share/texmf-dist/tex/latex/latexconfig/epstopdf-sys.cfg
INPUT /usr/share/texmf-dist/tex/latex/latexconfig/epstopdf-sys.cfg
OUTPUT thesis-blx.bib
INPUT thesis.bbl
INPUT thesis.bbl
INPUT thesis.bbl
INPUT /usr/share/texmf-dist/tex/latex/microtype/mt-ppl.cfg
INPUT /usr/share/texmf-dist/tex/latex/microtype/mt-ppl.cfg
INPUT /usr/share/texmf-dist/tex/latex/hyperref/nameref.sty
INPUT /usr/share/texmf-dist/tex/latex/hyperref/nameref.sty
INPUT /usr/share/texmf-dist/tex/generic/oberdiek/gettitlestring.sty
INPUT /usr/share/texmf-dist/tex/generic/oberdiek/gettitlestring.sty
INPUT thesis.out
INPUT thesis.out
INPUT thesis.out
INPUT thesis.out
INPUT ./thesis.out
INPUT ./thesis.out
OUTPUT thesis.out
INPUT /usr/share/texmf-dist/tex/latex/oberdiek/bookmark.sty
INPUT /usr/share/texmf-dist/tex/latex/oberdiek/bookmark.sty
INPUT /usr/share/texmf-dist/tex/latex/oberdiek/bkm-pdftex.def
INPUT /usr/share/texmf-dist/tex/latex/oberdiek/bkm-pdftex.def
OUTPUT frontback/titlepage.aux
INPUT frontback/titlepage.tex
INPUT frontback/titlepage.tex
INPUT /usr/share/texmf-dist/fonts/tfm/adobe/palatino/pplr9d.tfm
INPUT /usr/share/texmf-dist/fonts/tfm/adobe/palatino/pplr9d.tfm
INPUT /usr/share/texmf-dist/fonts/tfm/adobe/palatino/pplr9d.tfm
INPUT /usr/share/texmf-dist/fonts/tfm/adobe/palatino/pplr9d.tfm
INPUT /usr/share/texmf-dist/fonts/tfm/adobe/palatino/pplr9d.tfm
INPUT /usr/share/texmf-dist/tex/latex/eulervm/uzeur.fd
INPUT /usr/share/texmf-dist/tex/latex/eulervm/uzeur.fd
INPUT /usr/share/texmf-dist/fonts/tfm/public/eulervm/zeurm10.tfm
INPUT /usr/share/texmf-dist/tex/latex/microtype/mt-eur.cfg
INPUT /usr/share/texmf-dist/tex/latex/microtype/mt-eur.cfg
INPUT /usr/share/texmf-dist/fonts/tfm/public/eulervm/zeurm10.tfm
INPUT /usr/share/texmf-dist/fonts/tfm/public/eulervm/zeurm7.tfm
INPUT /usr/share/texmf-dist/tex/latex/eulervm/uzeus.fd
INPUT /usr/share/texmf-dist/tex/latex/eulervm/uzeus.fd
INPUT /usr/share/texmf-dist/fonts/tfm/public/eulervm/zeusm10.tfm
INPUT /usr/share/texmf-dist/tex/latex/microtype/mt-eus.cfg
INPUT /usr/share/texmf-dist/tex/latex/microtype/mt-eus.cfg
INPUT /usr/share/texmf-dist/fonts/tfm/public/eulervm/zeusm10.tfm
INPUT /usr/share/texmf-dist/fonts/tfm/public/eulervm/zeusm7.tfm
INPUT /usr/share/texmf-dist/tex/latex/eulervm/uzeuex.fd
INPUT /usr/share/texmf-dist/tex/latex/eulervm/uzeuex.fd
INPUT /usr/share/texmf-dist/fonts/tfm/public/eulervm/zeuex10.tfm
INPUT /usr/share/texmf-dist/fonts/tfm/public/eulervm/zeuex10.tfm
INPUT /usr/share/texmf-dist/fonts/tfm/public/eulervm/zeuex10.tfm
INPUT /usr/share/texmf-dist/fonts/tfm/public/amsfonts/symbols/msam10.tfm
INPUT /usr/share/texmf-dist/tex/latex/microtype/mt-msa.cfg
INPUT /usr/share/texmf-dist/tex/latex/microtype/mt-msa.cfg
INPUT /usr/share/texmf-dist/fonts/tfm/public/amsfonts/symbols/msam10.tfm
INPUT /usr/share/texmf-dist/fonts/tfm/public/amsfonts/symbols/msam7.tfm
INPUT /usr/share/texmf-dist/fonts/tfm/public/amsfonts/symbols/msbm10.tfm
INPUT /usr/share/texmf-dist/tex/latex/microtype/mt-msb.cfg
INPUT /usr/share/texmf-dist/tex/latex/microtype/mt-msb.cfg
INPUT /usr/share/texmf-dist/fonts/tfm/public/amsfonts/symbols/msbm10.tfm
INPUT /usr/share/texmf-dist/fonts/tfm/public/amsfonts/symbols/msbm7.tfm
INPUT /usr/share/texmf-dist/tex/latex/psnfss/ot1zplm.fd
INPUT /usr/share/texmf-dist/tex/latex/psnfss/ot1zplm.fd
INPUT /usr/share/texmf-dist/fonts/tfm/public/mathpazo/zplmr7t.tfm
INPUT /usr/share/texmf-dist/fonts/tfm/public/mathpazo/zplmr7t.tfm
INPUT /usr/share/texmf-dist/fonts/tfm/public/mathpazo/zplmr7t.tfm
INPUT /usr/share/texmf-dist/fonts/tfm/adobe/palatino/pplr9d.tfm
INPUT /usr/share/texmf-dist/fonts/tfm/adobe/palatino/pplrc9d.tfm
INPUT /usr/share/texmf-dist/fonts/tfm/adobe/palatino/pplrc9d.tfm
INPUT /usr/share/texmf-dist/fonts/tfm/adobe/palatino/pplr9d.tfm
INPUT /usr/share/texmf-dist/fonts/tfm/adobe/palatino/pplr9d.tfm
INPUT /usr/share/texmf-dist/fonts/tfm/public/eulervm/zeurm10.tfm
INPUT /usr/share/texmf-dist/fonts/tfm/public/eulervm/zeurm10.tfm
INPUT /usr/share/texmf-dist/fonts/tfm/public/eulervm/zeurm7.tfm
INPUT /usr/share/texmf-dist/fonts/tfm/public/eulervm/zeusm10.tfm
INPUT /usr/share/texmf-dist/fonts/tfm/public/eulervm/zeusm10.tfm
INPUT /usr/share/texmf-dist/fonts/tfm/public/eulervm/zeusm7.tfm
INPUT /usr/share/texmf-dist/fonts/tfm/public/eulervm/zeuex10.tfm
INPUT /usr/share/texmf-dist/fonts/tfm/public/eulervm/zeuex10.tfm
INPUT /usr/share/texmf-dist/fonts/tfm/public/eulervm/zeuex10.tfm
INPUT /usr/share/texmf-dist/fonts/tfm/public/amsfonts/symbols/msam10.tfm
INPUT /usr/share/texmf-dist/fonts/tfm/public/amsfonts/symbols/msam10.tfm
INPUT /usr/share/texmf-dist/fonts/tfm/public/amsfonts/symbols/msam7.tfm
INPUT /usr/share/texmf-dist/fonts/tfm/public/amsfonts/symbols/msbm10.tfm
INPUT /usr/share/texmf-dist/fonts/tfm/public/amsfonts/symbols/msbm10.tfm
INPUT /usr/share/texmf-dist/fonts/tfm/public/amsfonts/symbols/msbm7.tfm
INPUT /usr/share/texmf-dist/fonts/tfm/public/mathpazo/zplmr7t.tfm
INPUT /usr/share/texmf-dist/fonts/tfm/public/mathpazo/zplmr7t.tfm
INPUT /usr/share/texmf-dist/fonts/tfm/public/mathpazo/zplmr7t.tfm
INPUT img/fi-logo-color.pdf
INPUT ./img/fi-logo-color.pdf
INPUT ./img/fi-logo-color.pdf
INPUT /usr/share/texmf-dist/fonts/tfm/adobe/palatino/pplr9d.tfm
INPUT /usr/share/texmf-dist/fonts/tfm/public/eulervm/zeurm10.tfm
INPUT /usr/share/texmf-dist/fonts/tfm/public/eulervm/zeurm7.tfm
INPUT /usr/share/texmf-dist/fonts/tfm/public/eulervm/zeusm10.tfm
INPUT /usr/share/texmf-dist/fonts/tfm/public/eulervm/zeusm7.tfm
INPUT /usr/share/texmf-dist/fonts/tfm/public/eulervm/zeuex10.tfm
INPUT /usr/share/texmf-dist/fonts/tfm/public/eulervm/zeuex10.tfm
INPUT /usr/share/texmf-dist/fonts/tfm/public/amsfonts/symbols/msam10.tfm
INPUT /usr/share/texmf-dist/fonts/tfm/public/amsfonts/symbols/msam7.tfm
INPUT /usr/share/texmf-dist/fonts/tfm/public/amsfonts/symbols/msbm10.tfm
INPUT /usr/share/texmf-dist/fonts/tfm/public/amsfonts/symbols/msbm7.tfm
INPUT /usr/share/texmf-dist/fonts/tfm/public/mathpazo/zplmr7t.tfm
INPUT /usr/share/texmf-dist/fonts/tfm/public/mathpazo/zplmr7t.tfm
INPUT /usr/share/texmf-dist/fonts/tfm/adobe/palatino/pplr9d.tfm
INPUT /usr/share/texmf-dist/fonts/tfm/adobe/palatino/pplrc9d.tfm
INPUT /usr/share/texmf-dist/fonts/tfm/adobe/palatino/pplrc9d.tfm
INPUT /usr/share/texmf-dist/fonts/vf/adobe/palatino/pplr9d.vf
INPUT /usr/share/texmf-dist/fonts/tfm/adobe/palatino/pplr8r.tfm
INPUT /usr/share/texmf-dist/fonts/tfm/public/mathpazo/fplmr.tfm
INPUT /usr/share/texmf-dist/fonts/tfm/adobe/palatino/pplrc8r.tfm
INPUT /var/lib/texmf/fonts/map/pdftex/updmap/pdftex.map
INPUT /usr/share/texmf-dist/fonts/vf/adobe/palatino/pplrc9d.vf
INPUT /usr/share/texmf-dist/fonts/tfm/adobe/palatino/pplrc8r.tfm
INPUT /usr/share/texmf-dist/fonts/tfm/adobe/palatino/pplr8r.tfm
INPUT /usr/share/texmf-dist/fonts/tfm/adobe/palatino/pplr8r.tfm
INPUT /usr/share/texmf-dist/fonts/vf/adobe/palatino/pplr9d.vf
INPUT /usr/share/texmf-dist/fonts/tfm/public/mathpazo/fplmr.tfm
INPUT /usr/share/texmf-dist/fonts/vf/adobe/palatino/pplr9d.vf
INPUT /usr/share/texmf-dist/fonts/tfm/adobe/palatino/pplr8r.tfm
INPUT /usr/share/texmf-dist/fonts/tfm/public/mathpazo/fplmr.tfm
INPUT /usr/share/texmf-dist/fonts/tfm/adobe/palatino/pplrc8r.tfm
INPUT /usr/share/texmf-dist/fonts/vf/adobe/palatino/pplrc9d.vf
INPUT /usr/share/texmf-dist/fonts/tfm/adobe/palatino/pplr8r.tfm
OUTPUT frontback/declaration.aux
INPUT frontback/declaration.tex
INPUT frontback/declaration.tex
INPUT /usr/share/texmf-dist/fonts/tfm/adobe/palatino/pplr9d.tfm
INPUT /usr/share/texmf-dist/fonts/tfm/adobe/palatino/pplr9d.tfm
INPUT /usr/share/texmf-dist/fonts/tfm/public/eulervm/zeurm7.tfm
INPUT /usr/share/texmf-dist/fonts/tfm/public/eulervm/zeusm7.tfm
INPUT /usr/share/texmf-dist/fonts/tfm/public/eulervm/zeuex10.tfm
INPUT /usr/share/texmf-dist/fonts/tfm/public/amsfonts/symbols/msam7.tfm
INPUT /usr/share/texmf-dist/fonts/tfm/public/amsfonts/symbols/msbm7.tfm
INPUT /usr/share/texmf-dist/fonts/tfm/public/mathpazo/zplmr7t.tfm
INPUT /usr/share/texmf-dist/fonts/vf/adobe/palatino/pplr9d.vf
INPUT /usr/share/texmf-dist/fonts/tfm/adobe/palatino/pplr8r.tfm
INPUT /usr/share/texmf-dist/fonts/tfm/public/mathpazo/fplmr.tfm
INPUT /usr/share/texmf-dist/fonts/tfm/adobe/palatino/pplrc8r.tfm
OUTPUT frontback/abstract.aux
INPUT frontback/abstract.tex
INPUT frontback/abstract.tex
INPUT /usr/share/texmf-dist/fonts/tfm/jknappen/ec/ecss1000.tfm
OUTPUT frontback/keywords.aux
INPUT frontback/keywords.tex
INPUT frontback/keywords.tex
OUTPUT frontback/acknowledgements.aux
INPUT frontback/acknowledgements.tex
INPUT frontback/acknowledgements.tex
OUTPUT frontback/contents.aux
INPUT frontback/contents.tex
INPUT frontback/contents.tex
INPUT thesis.toc
INPUT thesis.toc
INPUT /usr/share/texmf-dist/fonts/tfm/adobe/palatino/pplrc9d.tfm
INPUT /usr/share/texmf-dist/fonts/tfm/adobe/palatino/pplb9d.tfm
INPUT /usr/share/texmf-dist/fonts/tfm/jknappen/ec/eccc1000.tfm
INPUT /usr/share/texmf-dist/tex/latex/microtype/mt-cmr.cfg
INPUT /usr/share/texmf-dist/tex/latex/microtype/mt-cmr.cfg
INPUT /usr/share/texmf-dist/fonts/tfm/jknappen/ec/eccc1000.tfm
INPUT /usr/share/texmf-dist/fonts/tfm/adobe/palatino/pplb9d.tfm
OUTPUT thesis.toc
INPUT /usr/share/texmf-dist/fonts/tfm/adobe/palatino/pplr9d.tfm
INPUT /usr/share/texmf-dist/fonts/tfm/adobe/palatino/pplrc9d.tfm
INPUT /usr/share/texmf-dist/fonts/tfm/adobe/palatino/pplrc9d.tfm
INPUT /usr/share/texmf-dist/fonts/vf/adobe/palatino/pplrc9d.vf
INPUT /usr/share/texmf-dist/fonts/tfm/adobe/palatino/pplr8r.tfm
OUTPUT chapters/01-introduction.aux
INPUT chapters/01-introduction.tex
INPUT chapters/01-introduction.tex
INPUT /usr/share/texmf-dist/fonts/tfm/adobe/palatino/pplr9d.tfm
INPUT /usr/share/texmf-dist/fonts/tfm/adobe/palatino/pplr9d.tfm
INPUT /usr/share/texmf-dist/fonts/tfm/public/eulervm/zeurm10.tfm
INPUT /usr/share/texmf-dist/fonts/tfm/public/eulervm/zeurm7.tfm
INPUT /usr/share/texmf-dist/fonts/tfm/public/eulervm/zeurm7.tfm
INPUT /usr/share/texmf-dist/fonts/tfm/public/eulervm/zeusm10.tfm
INPUT /usr/share/texmf-dist/fonts/tfm/public/eulervm/zeusm7.tfm
INPUT /usr/share/texmf-dist/fonts/tfm/public/eulervm/zeusm7.tfm
INPUT /usr/share/texmf-dist/fonts/tfm/public/eulervm/zeuex10.tfm
INPUT /usr/share/texmf-dist/fonts/tfm/public/eulervm/zeuex10.tfm
INPUT /usr/share/texmf-dist/fonts/tfm/public/eulervm/zeuex10.tfm
INPUT /usr/share/texmf-dist/fonts/tfm/public/amsfonts/symbols/msam10.tfm
INPUT /usr/share/texmf-dist/fonts/tfm/public/amsfonts/symbols/msam7.tfm
INPUT /usr/share/texmf-dist/fonts/tfm/public/amsfonts/symbols/msam7.tfm
INPUT /usr/share/texmf-dist/fonts/tfm/public/amsfonts/symbols/msbm10.tfm
INPUT /usr/share/texmf-dist/fonts/tfm/public/amsfonts/symbols/msbm7.tfm
INPUT /usr/share/texmf-dist/fonts/tfm/public/amsfonts/symbols/msbm7.tfm
INPUT /usr/share/texmf-dist/fonts/tfm/public/mathpazo/zplmr7t.tfm
INPUT /usr/share/texmf-dist/fonts/tfm/public/mathpazo/zplmr7t.tfm
INPUT /usr/share/texmf-dist/fonts/tfm/public/mathpazo/zplmr7t.tfm
OUTPUT chapters/02-preliminaries.aux
INPUT chapters/02-preliminaries.tex
INPUT chapters/02-preliminaries.tex
INPUT /usr/share/texmf-dist/fonts/tfm/adobe/palatino/pplri9d.tfm
INPUT /usr/share/texmf-dist/fonts/vf/adobe/palatino/pplri9d.vf
INPUT /usr/share/texmf-dist/fonts/tfm/adobe/palatino/pplri8r.tfm
INPUT /usr/share/texmf-dist/fonts/tfm/public/mathpazo/fplmri.tfm
INPUT /usr/share/texmf-dist/fonts/tfm/adobe/palatino/pplrij8r.tfm
INPUT /usr/share/texmf-dist/fonts/vf/adobe/palatino/pplr9d.vf
INPUT /usr/share/texmf-dist/fonts/tfm/public/mathpazo/fplmr.tfm
INPUT /usr/share/texmf-dist/fonts/tfm/adobe/palatino/pplrc8r.tfm
INPUT /usr/share/texmf-dist/fonts/vf/adobe/palatino/pplr9d.vf
INPUT /usr/share/texmf-dist/fonts/tfm/adobe/palatino/pplr8r.tfm
INPUT /usr/share/texmf-dist/fonts/tfm/public/mathpazo/fplmr.tfm
INPUT /usr/share/texmf-dist/fonts/tfm/adobe/palatino/pplrc8r.tfm
OUTPUT thesis.pyg
INPUT _minted-thesis/default-pyg-prefix.pygstyle
INPUT _minted-thesis/default-pyg-prefix.pygstyle
INPUT _minted-thesis/default-pyg-prefix.pygstyle
INPUT _minted-thesis/default-pyg-prefix.pygstyle
INPUT _minted-thesis/lovelace.pygstyle
INPUT _minted-thesis/lovelace.pygstyle
INPUT _minted-thesis/lovelace.pygstyle
INPUT _minted-thesis/lovelace.pygstyle
INPUT ./thesis.pyg
INPUT _minted-thesis/D4EDA407CF6A5F0B4EB791A145AABB4E9F014CDCC252D787938A66F94A2C28CF.pygtex
INPUT _minted-thesis/D4EDA407CF6A5F0B4EB791A145AABB4E9F014CDCC252D787938A66F94A2C28CF.pygtex
INPUT _minted-thesis/D4EDA407CF6A5F0B4EB791A145AABB4E9F014CDCC252D787938A66F94A2C28CF.pygtex
INPUT _minted-thesis/D4EDA407CF6A5F0B4EB791A145AABB4E9F014CDCC252D787938A66F94A2C28CF.pygtex
INPUT /usr/share/texmf-dist/tex/latex/bera/t1fvm.fd
INPUT /usr/share/texmf-dist/tex/latex/bera/t1fvm.fd
INPUT /usr/share/texmf-dist/fonts/tfm/public/bera/fvmr8t.tfm
INPUT /usr/share/texmf-dist/fonts/tfm/adobe/palatino/pplb9d.tfm
INPUT /usr/share/texmf-dist/fonts/tfm/adobe/palatino/pplri9d.tfm
INPUT /usr/share/texmf-dist/fonts/tfm/public/bera/fvmr8t.tfm
INPUT /usr/share/texmf-dist/fonts/vf/public/bera/fvmr8t.vf
INPUT /usr/share/texmf-dist/fonts/tfm/public/bera/fvmr8r.tfm
INPUT /usr/share/texmf-dist/fonts/vf/adobe/palatino/pplb9d.vf
INPUT /usr/share/texmf-dist/fonts/tfm/adobe/palatino/pplb8r.tfm
INPUT /usr/share/texmf-dist/fonts/tfm/public/mathpazo/fplmb.tfm
INPUT /usr/share/texmf-dist/fonts/tfm/adobe/palatino/pplbj8r.tfm
INPUT /usr/share/texmf-dist/fonts/vf/adobe/palatino/pplri9d.vf
INPUT /usr/share/texmf-dist/fonts/tfm/adobe/palatino/pplri8r.tfm
INPUT /usr/share/texmf-dist/fonts/tfm/public/mathpazo/fplmri.tfm
INPUT /usr/share/texmf-dist/fonts/tfm/adobe/palatino/pplrij8r.tfm
INPUT /usr/share/texmf-dist/fonts/vf/public/bera/fvmr8t.vf
INPUT /usr/share/texmf-dist/fonts/tfm/public/bera/fvmr8r.tfm
OUTPUT thesis.pyg
INPUT ./thesis.pyg
INPUT _minted-thesis/E941F56C2C2A3E75431F2C285BE81F339F014CDCC252D787938A66F94A2C28CF.pygtex
INPUT _minted-thesis/E941F56C2C2A3E75431F2C285BE81F339F014CDCC252D787938A66F94A2C28CF.pygtex
INPUT _minted-thesis/E941F56C2C2A3E75431F2C285BE81F339F014CDCC252D787938A66F94A2C28CF.pygtex
INPUT _minted-thesis/E941F56C2C2A3E75431F2C285BE81F339F014CDCC252D787938A66F94A2C28CF.pygtex
INPUT /usr/share/texmf-dist/tex/latex/bera/ts1fvm.fd
INPUT /usr/share/texmf-dist/tex/latex/bera/ts1fvm.fd
INPUT /usr/share/texmf-dist/fonts/tfm/public/bera/fvmr8c.tfm
INPUT /usr/share/texmf-dist/fonts/tfm/public/bera/fvmro8t.tfm
INPUT /usr/share/texmf-dist/fonts/tfm/public/bera/fvmb8t.tfm
INPUT /usr/share/texmf-dist/fonts/tfm/public/bera/fvmro8t.tfm
INPUT /usr/share/texmf-dist/fonts/vf/public/bera/fvmr8c.vf
INPUT /usr/share/texmf-dist/fonts/vf/public/bera/fvmro8t.vf
INPUT /usr/share/texmf-dist/fonts/tfm/public/bera/fvmro8r.tfm
INPUT /usr/share/texmf-dist/fonts/vf/public/bera/fvmb8t.vf
INPUT /usr/share/texmf-dist/fonts/tfm/public/bera/fvmb8r.tfm
INPUT /usr/share/texmf-dist/fonts/vf/public/bera/fvmro8t.vf
INPUT /usr/share/texmf-dist/fonts/tfm/public/bera/fvmro8r.tfm
INPUT /usr/share/texmf-dist/fonts/vf/public/eulervm/zeusm10.vf
INPUT /usr/share/texmf-dist/fonts/tfm/public/amsfonts/euler/eufm10.tfm
INPUT /usr/share/texmf-dist/fonts/tfm/public/cm/cmsy10.tfm
INPUT /usr/share/texmf-dist/fonts/tfm/public/amsfonts/euler/eusm10.tfm
INPUT /usr/share/texmf-dist/fonts/vf/public/eulervm/zeurm10.vf
INPUT /usr/share/texmf-dist/fonts/tfm/public/amsfonts/euler/eurm10.tfm
INPUT /usr/share/texmf-dist/fonts/tfm/public/cm/cmmi10.tfm
INPUT /usr/share/texmf-dist/fonts/tfm/public/cm/cmbx10.tfm
OUTPUT chapters/03-divine.aux
INPUT chapters/03-divine.tex
INPUT chapters/03-divine.tex
INPUT /usr/share/texmf-dist/fonts/tfm/jknappen/ec/ecss1000.tfm
INPUT /usr/share/texmf-dist/fonts/tfm/jknappen/ec/ecsi1000.tfm
INPUT /usr/share/texmf-dist/fonts/tfm/jknappen/ec/eccc1000.tfm
INPUT /usr/share/texmf-dist/fonts/tfm/jknappen/ec/eccc1000.tfm
OUTPUT thesis.pyg
INPUT ./thesis.pyg
INPUT _minted-thesis/E6BF97E38B2B60A0AFACED451D2413BC9F014CDCC252D787938A66F94A2C28CF.pygtex
INPUT _minted-thesis/E6BF97E38B2B60A0AFACED451D2413BC9F014CDCC252D787938A66F94A2C28CF.pygtex
INPUT _minted-thesis/E6BF97E38B2B60A0AFACED451D2413BC9F014CDCC252D787938A66F94A2C28CF.pygtex
INPUT _minted-thesis/E6BF97E38B2B60A0AFACED451D2413BC9F014CDCC252D787938A66F94A2C28CF.pygtex
INPUT /usr/share/texmf-dist/fonts/tfm/adobe/palatino/pplr9d.tfm
INPUT /usr/share/texmf-dist/fonts/tfm/public/eulervm/zeurm5.tfm
INPUT /usr/share/texmf-dist/fonts/tfm/public/eulervm/zeusm5.tfm
INPUT /usr/share/texmf-dist/fonts/tfm/public/eulervm/zeuex10.tfm
INPUT /usr/share/texmf-dist/fonts/tfm/public/amsfonts/symbols/msam5.tfm
INPUT /usr/share/texmf-dist/fonts/tfm/public/amsfonts/symbols/msbm5.tfm
INPUT /usr/share/texmf-dist/fonts/tfm/public/mathpazo/zplmr7t.tfm
INPUT /usr/share/texmf-dist/fonts/tfm/adobe/palatino/pplb9d.tfm
INPUT /usr/share/texmf-dist/tex/latex/psnfss/ts1pplj.fd
INPUT /usr/share/texmf-dist/tex/latex/psnfss/ts1pplj.fd
INPUT /usr/share/texmf-dist/fonts/tfm/adobe/palatino/pplr9c.tfm
INPUT img/main_graph.png
INPUT ./img/main_graph.png
INPUT ./img/main_graph.png
INPUT /usr/share/texmf-dist/fonts/vf/adobe/palatino/pplb9d.vf
INPUT /usr/share/texmf-dist/fonts/tfm/adobe/palatino/pplb8r.tfm
INPUT /usr/share/texmf-dist/fonts/tfm/public/mathpazo/fplmb.tfm
INPUT /usr/share/texmf-dist/fonts/tfm/adobe/palatino/pplbj8r.tfm
INPUT /usr/share/texmf-dist/fonts/vf/adobe/palatino/pplr9c.vf
OUTPUT chapters/04-fuzzing.aux
INPUT chapters/04-fuzzing.tex
INPUT chapters/04-fuzzing.tex
INPUT img/generic_fuzzer_structure.png
INPUT ./img/generic_fuzzer_structure.png
INPUT ./img/generic_fuzzer_structure.png
OUTPUT chapters/05-commuting.aux
INPUT chapters/05-commuting.tex
INPUT chapters/05-commuting.tex
INPUT /usr/share/texmf-dist/fonts/vf/public/eulervm/zeurm7.vf
INPUT /usr/share/texmf-dist/fonts/tfm/public/amsfonts/euler/eurm7.tfm
INPUT /usr/share/texmf-dist/fonts/tfm/public/cm/cmmi7.tfm
INPUT /usr/share/texmf-dist/fonts/tfm/public/cm/cmbx7.tfm
INPUT /usr/share/texmf-dist/fonts/tfm/public/cm/cmsy7.tfm
INPUT /usr/share/texmf-dist/fonts/tfm/public/cm/cmr7.tfm
INPUT /usr/share/texmf-dist/fonts/tfm/jknappen/ec/ecss0900.tfm
INPUT img/original_replay.png
INPUT ./img/original_replay.png
INPUT ./img/original_replay.png
INPUT img/inode_commuting.png
INPUT ./img/inode_commuting.png
INPUT ./img/inode_commuting.png
OUTPUT chapters/06-divinefuzzing.aux
INPUT chapters/06-divinefuzzing.tex
INPUT chapters/06-divinefuzzing.tex
INPUT /usr/share/texmf-dist/fonts/tfm/adobe/palatino/pplr9c.tfm
INPUT /usr/share/texmf-dist/fonts/vf/adobe/palatino/pplr9c.vf
OUTPUT chapters/07-results.aux
INPUT chapters/07-results.tex
INPUT chapters/07-results.tex
INPUT /usr/share/texmf-dist/fonts/vf/public/eulervm/zeurm10.vf
INPUT /usr/share/texmf-dist/fonts/tfm/public/amsfonts/euler/eurm10.tfm
INPUT /usr/share/texmf-dist/fonts/tfm/public/cm/cmbx10.tfm
INPUT /usr/share/texmf-dist/fonts/vf/public/eulervm/zeusm10.vf
INPUT /usr/share/texmf-dist/fonts/tfm/public/amsfonts/euler/eufm10.tfm
INPUT /usr/share/texmf-dist/fonts/tfm/public/amsfonts/euler/eusm10.tfm
INPUT /usr/share/texmf-dist/fonts/tfm/adobe/palatino/pplbi9d.tfm
INPUT /usr/share/texmf-dist/fonts/vf/adobe/palatino/pplbi9d.vf
INPUT /usr/share/texmf-dist/fonts/tfm/adobe/palatino/pplbi8r.tfm
INPUT /usr/share/texmf-dist/fonts/tfm/public/mathpazo/fplmbi.tfm
INPUT /usr/share/texmf-dist/fonts/tfm/adobe/palatino/pplbij8r.tfm
OUTPUT chapters/08-conclusion.aux
INPUT chapters/08-conclusion.tex
INPUT chapters/08-conclusion.tex
INPUT /usr/share/texmf-dist/fonts/tfm/adobe/palatino/pplr9d.tfm
OUTPUT chapters/appendix-a.aux
INPUT chapters/appendix-a.tex
INPUT chapters/appendix-a.tex
OUTPUT thesis.pyg
INPUT ./thesis.pyg
INPUT _minted-thesis/98ED958F920D17694C3B2E38B5C0F9409F014CDCC252D787938A66F94A2C28CF.pygtex
INPUT _minted-thesis/98ED958F920D17694C3B2E38B5C0F9409F014CDCC252D787938A66F94A2C28CF.pygtex
INPUT _minted-thesis/98ED958F920D17694C3B2E38B5C0F9409F014CDCC252D787938A66F94A2C28CF.pygtex
INPUT _minted-thesis/98ED958F920D17694C3B2E38B5C0F9409F014CDCC252D787938A66F94A2C28CF.pygtex
OUTPUT thesis.pyg
INPUT ./thesis.pyg
INPUT _minted-thesis/05FAACB5C6DB11ED32E28464845567DA9F014CDCC252D787938A66F94A2C28CF.pygtex
INPUT _minted-thesis/05FAACB5C6DB11ED32E28464845567DA9F014CDCC252D787938A66F94A2C28CF.pygtex
INPUT _minted-thesis/05FAACB5C6DB11ED32E28464845567DA9F014CDCC252D787938A66F94A2C28CF.pygtex
INPUT _minted-thesis/05FAACB5C6DB11ED32E28464845567DA9F014CDCC252D787938A66F94A2C28CF.pygtex
OUTPUT thesis.pyg
INPUT ./thesis.pyg
INPUT _minted-thesis/C449BC163E2E56E5E8AA93263B9601F19F014CDCC252D787938A66F94A2C28CF.pygtex
INPUT _minted-thesis/C449BC163E2E56E5E8AA93263B9601F19F014CDCC252D787938A66F94A2C28CF.pygtex
INPUT _minted-thesis/C449BC163E2E56E5E8AA93263B9601F19F014CDCC252D787938A66F94A2C28CF.pygtex
INPUT _minted-thesis/C449BC163E2E56E5E8AA93263B9601F19F014CDCC252D787938A66F94A2C28CF.pygtex
INPUT /usr/share/texmf-dist/fonts/vf/adobe/palatino/pplb9d.vf
INPUT /usr/share/texmf-dist/fonts/tfm/adobe/palatino/pplb8r.tfm
INPUT /usr/share/texmf-dist/fonts/tfm/public/mathpazo/fplmb.tfm
INPUT /usr/share/texmf-dist/fonts/tfm/adobe/palatino/pplbj8r.tfm
OUTPUT thesis.pyg
INPUT ./thesis.pyg
INPUT _minted-thesis/76281DD793BC441058548919363997389F014CDCC252D787938A66F94A2C28CF.pygtex
INPUT _minted-thesis/76281DD793BC441058548919363997389F014CDCC252D787938A66F94A2C28CF.pygtex
INPUT _minted-thesis/76281DD793BC441058548919363997389F014CDCC252D787938A66F94A2C28CF.pygtex
INPUT _minted-thesis/76281DD793BC441058548919363997389F014CDCC252D787938A66F94A2C28CF.pygtex
OUTPUT thesis.pyg
INPUT ./thesis.pyg
INPUT _minted-thesis/1714E598549812453415E0C7FD6D24219F014CDCC252D787938A66F94A2C28CF.pygtex
INPUT _minted-thesis/1714E598549812453415E0C7FD6D24219F014CDCC252D787938A66F94A2C28CF.pygtex
INPUT _minted-thesis/1714E598549812453415E0C7FD6D24219F014CDCC252D787938A66F94A2C28CF.pygtex
INPUT _minted-thesis/1714E598549812453415E0C7FD6D24219F014CDCC252D787938A66F94A2C28CF.pygtex
OUTPUT thesis.pyg
INPUT ./thesis.pyg
INPUT _minted-thesis/A6DE760D792DB755DF26F96451A796CE9F014CDCC252D787938A66F94A2C28CF.pygtex
INPUT _minted-thesis/A6DE760D792DB755DF26F96451A796CE9F014CDCC252D787938A66F94A2C28CF.pygtex
INPUT _minted-thesis/A6DE760D792DB755DF26F96451A796CE9F014CDCC252D787938A66F94A2C28CF.pygtex
INPUT _minted-thesis/A6DE760D792DB755DF26F96451A796CE9F014CDCC252D787938A66F94A2C28CF.pygtex
OUTPUT thesis.pyg
INPUT ./thesis.pyg
INPUT _minted-thesis/8E7D67B652AAB8E916ED49E7CEE63D949F014CDCC252D787938A66F94A2C28CF.pygtex
INPUT _minted-thesis/8E7D67B652AAB8E916ED49E7CEE63D949F014CDCC252D787938A66F94A2C28CF.pygtex
INPUT _minted-thesis/8E7D67B652AAB8E916ED49E7CEE63D949F014CDCC252D787938A66F94A2C28CF.pygtex
INPUT _minted-thesis/8E7D67B652AAB8E916ED49E7CEE63D949F014CDCC252D787938A66F94A2C28CF.pygtex
OUTPUT thesis.pyg
INPUT ./thesis.pyg
INPUT _minted-thesis/4EBD580890778EF1B6B1D568E7222E5A9F014CDCC252D787938A66F94A2C28CF.pygtex
INPUT _minted-thesis/4EBD580890778EF1B6B1D568E7222E5A9F014CDCC252D787938A66F94A2C28CF.pygtex
INPUT _minted-thesis/4EBD580890778EF1B6B1D568E7222E5A9F014CDCC252D787938A66F94A2C28CF.pygtex
INPUT _minted-thesis/4EBD580890778EF1B6B1D568E7222E5A9F014CDCC252D787938A66F94A2C28CF.pygtex
OUTPUT thesis.pyg
INPUT ./thesis.pyg
INPUT _minted-thesis/32CE94ECA20595F525B2433B4802AB269F014CDCC252D787938A66F94A2C28CF.pygtex
INPUT _minted-thesis/32CE94ECA20595F525B2433B4802AB269F014CDCC252D787938A66F94A2C28CF.pygtex
INPUT _minted-thesis/32CE94ECA20595F525B2433B4802AB269F014CDCC252D787938A66F94A2C28CF.pygtex
INPUT _minted-thesis/32CE94ECA20595F525B2433B4802AB269F014CDCC252D787938A66F94A2C28CF.pygtex
OUTPUT thesis.pyg
INPUT ./thesis.pyg
INPUT _minted-thesis/D801FB67037DE656448F0CE69A1F0E409F014CDCC252D787938A66F94A2C28CF.pygtex
INPUT _minted-thesis/D801FB67037DE656448F0CE69A1F0E409F014CDCC252D787938A66F94A2C28CF.pygtex
INPUT _minted-thesis/D801FB67037DE656448F0CE69A1F0E409F014CDCC252D787938A66F94A2C28CF.pygtex
INPUT _minted-thesis/D801FB67037DE656448F0CE69A1F0E409F014CDCC252D787938A66F94A2C28CF.pygtex
OUTPUT thesis.pyg
INPUT ./thesis.pyg
INPUT _minted-thesis/55CBAED0621D292F6E6462FDE8196E319F014CDCC252D787938A66F94A2C28CF.pygtex
INPUT _minted-thesis/55CBAED0621D292F6E6462FDE8196E319F014CDCC252D787938A66F94A2C28CF.pygtex
INPUT _minted-thesis/55CBAED0621D292F6E6462FDE8196E319F014CDCC252D787938A66F94A2C28CF.pygtex
INPUT _minted-thesis/55CBAED0621D292F6E6462FDE8196E319F014CDCC252D787938A66F94A2C28CF.pygtex
OUTPUT thesis.pyg
INPUT ./thesis.pyg
INPUT _minted-thesis/905C45C0075E10AEFC8C3C8672EE591F9F014CDCC252D787938A66F94A2C28CF.pygtex
INPUT _minted-thesis/905C45C0075E10AEFC8C3C8672EE591F9F014CDCC252D787938A66F94A2C28CF.pygtex
INPUT _minted-thesis/905C45C0075E10AEFC8C3C8672EE591F9F014CDCC252D787938A66F94A2C28CF.pygtex
INPUT _minted-thesis/905C45C0075E10AEFC8C3C8672EE591F9F014CDCC252D787938A66F94A2C28CF.pygtex
OUTPUT thesis.pyg
INPUT ./thesis.pyg
INPUT _minted-thesis/DA36081FB06A6B073314B792DB6BFC2C9F014CDCC252D787938A66F94A2C28CF.pygtex
INPUT _minted-thesis/DA36081FB06A6B073314B792DB6BFC2C9F014CDCC252D787938A66F94A2C28CF.pygtex
INPUT _minted-thesis/DA36081FB06A6B073314B792DB6BFC2C9F014CDCC252D787938A66F94A2C28CF.pygtex
INPUT _minted-thesis/DA36081FB06A6B073314B792DB6BFC2C9F014CDCC252D787938A66F94A2C28CF.pygtex
OUTPUT thesis.pyg
INPUT ./thesis.pyg
INPUT _minted-thesis/D7F358100761B2776D5511727AAF44EF9F014CDCC252D787938A66F94A2C28CF.pygtex
INPUT _minted-thesis/D7F358100761B2776D5511727AAF44EF9F014CDCC252D787938A66F94A2C28CF.pygtex
INPUT _minted-thesis/D7F358100761B2776D5511727AAF44EF9F014CDCC252D787938A66F94A2C28CF.pygtex
INPUT _minted-thesis/D7F358100761B2776D5511727AAF44EF9F014CDCC252D787938A66F94A2C28CF.pygtex
OUTPUT frontback/bibliography.aux
INPUT frontback/bibliography.tex
INPUT frontback/bibliography.tex
INPUT /usr/share/texmf-dist/fonts/tfm/jknappen/ec/ecsi1000.tfm
INPUT thesis.aux
INPUT frontback/titlepage.aux
INPUT frontback/titlepage.aux
INPUT frontback/declaration.aux
INPUT frontback/declaration.aux
INPUT frontback/abstract.aux
INPUT frontback/abstract.aux
INPUT frontback/keywords.aux
INPUT frontback/keywords.aux
INPUT frontback/acknowledgements.aux
INPUT frontback/acknowledgements.aux
INPUT frontback/contents.aux
INPUT frontback/contents.aux
INPUT chapters/01-introduction.aux
INPUT chapters/01-introduction.aux
INPUT chapters/02-preliminaries.aux
INPUT chapters/02-preliminaries.aux
INPUT chapters/03-divine.aux
INPUT chapters/03-divine.aux
INPUT chapters/04-fuzzing.aux
INPUT chapters/04-fuzzing.aux
INPUT chapters/05-commuting.aux
INPUT chapters/05-commuting.aux
INPUT chapters/06-divinefuzzing.aux
INPUT chapters/06-divinefuzzing.aux
INPUT chapters/07-results.aux
INPUT chapters/07-results.aux
INPUT chapters/08-conclusion.aux
INPUT chapters/08-conclusion.aux
INPUT chapters/appendix-a.aux
INPUT chapters/appendix-a.aux
INPUT frontback/bibliography.aux
INPUT frontback/bibliography.aux
INPUT ./thesis.out
INPUT ./thesis.out
INPUT thesis.pyg
INPUT thesis.run.xml
OUTPUT thesis.run.xml
INPUT /usr/share/texmf-dist/fonts/enc/dvips/base/8r.enc
INPUT /usr/share/texmf-dist/fonts/enc/dvips/cm-super/cm-super-t1.enc
INPUT /usr/share/texmf-dist/fonts/type1/public/amsfonts/cm/cmsy10.pfb
INPUT /usr/share/texmf-dist/fonts/type1/public/amsfonts/euler/eufm10.pfb
INPUT /usr/share/texmf-dist/fonts/type1/public/amsfonts/euler/eurb10.pfb
INPUT /usr/share/texmf-dist/fonts/type1/public/amsfonts/euler/eurm10.pfb
INPUT /usr/share/texmf-dist/fonts/type1/public/amsfonts/euler/eurm7.pfb
INPUT /usr/share/texmf-dist/fonts/type1/public/amsfonts/euler/eusm10.pfb
INPUT /usr/share/texmf-dist/fonts/type1/public/fpl/fplbj8a.pfb
INPUT /usr/share/texmf-dist/fonts/type1/public/fpl/fplrc8a.pfb
INPUT /usr/share/texmf-dist/fonts/type1/public/fpl/fplrij8a.pfb
INPUT /usr/share/texmf-dist/fonts/type1/public/bera/fvmb8a.pfb
INPUT /usr/share/texmf-dist/fonts/type1/public/bera/fvmr8a.pfb
INPUT /usr/share/texmf-dist/fonts/type1/public/bera/fvmro8a.pfb
INPUT /usr/share/texmf-dist/fonts/type1/public/cm-super/sfcc1000.pfb
INPUT /usr/share/texmf-dist/fonts/type1/public/cm-super/sfsi1000.pfb
INPUT /usr/share/texmf-dist/fonts/type1/public/cm-super/sfss0900.pfb
INPUT /usr/share/texmf-dist/fonts/type1/public/cm-super/sfss1000.pfb
INPUT /usr/share/texmf-dist/fonts/type1/urw/palatino/uplb8a.pfb
INPUT /usr/share/texmf-dist/fonts/type1/urw/palatino/uplbi8a.pfb
INPUT /usr/share/texmf-dist/fonts/type1/urw/palatino/uplr8a.pfb
INPUT /usr/share/texmf-dist/fonts/type1/urw/palatino/uplri8a.pfb
